{
  "main": "node_modules/expo/AppEntry.js",
  "scripts": {
    "start": "expo start",
    "android": "expo start --android",
    "ios": "expo start --ios",
    "web": "expo start --web",
    "eject": "expo eject"
  },
  "dependencies": {
    "@expo/vector-icons": "^10.0.0",
    "@react-native-community/netinfo": "^3.0.1",
    "expo": "^35.0.0",
    "expo-av": "^7.0.0",
    "expo-errors": "^3.0.0",
    "expo-font": "^7.0.0",
    "expo-module-scripts": "^1.1.1",
    "expo-video-player": "^1.2.0",
    "firebase": "^6.0.2",
    "image-size-loader": "^0.7.0",
    "nvm": "0.0.4",
    "react": "16.8.3",
    "react-dom": "16.8.3",
    "react-native": "https://github.com/expo/react-native/archive/sdk-35.0.0.tar.gz",
    //"react-native-actionsheet": "^2.4.2",
    "react-native-btr": "^1.1.4",
    "react-native-chart-kit": "^3.2.1",
    "react-native-elements": "^1.1.0",
    //"react-native-gesture-handler": "~1.3.0",
    "react-native-gifted-chat": "^0.11.4",
    "react-native-keyboard-aware-scroll-view": "^0.8.0",
    "react-native-material-dropdown": "^0.11.1",
    "react-native-modal": "^11.0.1",
    //"react-native-paper": "^2.15.2",
    "react-native-svg": "~9.9.2",
    "react-native-web": "^0.11.7",
    "react-navigation": "^3.9.1",
    "react-navigation-tabs": "^2.1.2",
    "react-redux": "^6.0.1",
    //"reanimated-bottom-sheet": "^1.0.0-alpha.8",
    "redux": "^4.0.1",
    "redux-thunk": "^2.3.0",
    "tcomb-form-native": "^0.6.20"
  },
  "devDependencies": {
    "babel-preset-expo": "^7.0.0"
  },
  "private": true
}